{
	"id": "cf6c5498-ccd6-45da-93f4-fe56acfdac29",
	"name": "Algafood  Enviroments - Spring Rest",
	"values": [
		{
			"key": "host",
			"value": "localhost:8080",
			"enabled": false
		},
		{
			"key": "host",
			"value": "api.algafood.local:8080",
			"enabled": true
		},
		{
			"key": "id",
			"value": "1",
			"enabled": true
		}
	],
	"_postman_variable_scope": "environment",
	"_postman_exported_at": "2020-05-18T23:45:09.360Z",
	"_postman_exported_using": "Postman/7.24.0"
}